Frame;x;y;Sperm
0;98,77273;25,227272;6
1;99,083336;24,916666;6
2;99,03846;24,653847;6
3;98,85294;24,794117;6
4;98,85714;25,071428;6
5;98,7;25,1;6
6;99,03846;25,115385;6
7;99,0;25,25;6
8;99,166664;25,166666;6
9;98,833336;25,233334;6
10;98,833336;25,166666;6
11;98,916664;25,25;6
12;99,14286;24,928572;6
13;99,05556;25,61111;6
14;98,75;25,333334;6
15;98,77273;25,681818;6
16;98,59091;25,5;6
17;98,94444;25,38889;6
18;98,833336;25,7;6
19;99,045456;25,954546;6
20;99,1;25,633333;6
21;98,85714;26,142857;6
22;98,6;26,3;6
23;98,916664;26,083334;6
24;98,3;26,4;6
25;98,40909;26,318182;6
26;98,7;26,4;6
27;99,0;26,25;6
28;98,5;26,5;6
29;98,85714;26,142857;6
30;98,5;26,5;6
31;98,5;27,0;6
32;98,8;26,6;6
33;98,875;26,625;6
34;98,5;26,214285;6
35;98,611115;26,61111;6
36;98,21429;26,928572;6
37;98,0;27,0;6
38;98,27778;26,944445;6
39;98,86364;26,227272;6
40;98,318184;26,5;6
41;98,375;26,75;6
42;98,0;27,3;6
43;98,3;26,6;6
44;98,166664;26,833334;6
45;98,3;27,1;6
46;98,3;26,6;6
47;98,3;27,1;6
48;98,333336;27,083334;6
49;98,25;26,916666;6
50;98,333336;27,083334;6
51;98,3;27,1;6
52;98,13636;27,136364;6
53;98,05556;27,166666;6
54;98,13636;27,136364;6
55;98,416664;26,666666;6
56;98,13636;27,136364;6
57;98,1;27,0;6
58;98,1;27,0;6
59;98,13636;27,136364;6
60;97,916664;27,083334;6
61;98,03846;27,192308;6
62;98,0;27,25;6
63;98,25;26,916666;6
64;98,416664;27,083334;6
65;98,2;27,2;6
66;98,59091;27,227272;6
67;97,88461;27,115385;6
68;98,42308;26,961538;6
69;98,083336;27,416666;6
70;98,333336;27,083334;6
71;98,045456;27,59091;6
72;98,3;27,4;6
73;98,28571;27,357143;6
74;98,0;27,3;6
75;98,1;27,5;6
76;98,0;27,7;6
77;98,22727;27,681818;6
78;98,0;27,7;6
79;98,22727;27,681818;6
80;98,0;27,7;6
81;98,0;27,7;6
82;98,5;27,833334;6
83;98,25;27,833334;6
84;98,166664;27,833334;6
85;98,0;27,7;6
86;98,833336;27,944445;6
87;98,25;27,833334;6
88;99,166664;28,0;6
89;98,583336;27,833334;6
90;98,166664;27,61111;6
91;98,611115;27,722221;6
92;98,57692;27,653847;6
93;98,7;27,7;6
94;98,59091;27,5;6
95;98,4;27,6;6
96;98,833336;27,944445;6
97;98,78571;27,928572;6
98;98,5;28,045454;6
99;98,8;28,3;6
0;11,382353;32,205883;7
1;11,382353;32,205883;7
2;11,382353;32,205883;7
3;11,382353;32,205883;7
4;11,382353;32,205883;7
5;11,382353;32,205883;7
6;11,382353;32,205883;7
7;11,382353;32,205883;7
8;11,382353;32,205883;7
9;11,382353;32,205883;7
10;11,382353;32,205883;7
11;11,382353;32,205883;7
12;11,382353;32,205883;7
13;11,382353;32,205883;7
14;11,382353;32,205883;7
15;11,382353;32,205883;7
16;11,382353;32,205883;7
17;11,382353;32,205883;7
18;11,5;32,166668;7
19;11,382353;32,205883;7
20;11,382353;32,205883;7
21;11,382353;32,205883;7
22;11,382353;32,205883;7
23;11,382353;32,205883;7
24;11,382353;32,205883;7
25;11,382353;32,205883;7
26;11,382353;32,205883;7
27;11,382353;32,205883;7
28;11,382353;32,205883;7
29;11,382353;32,205883;7
30;11,382353;32,205883;7
31;11,382353;32,205883;7
32;11,382353;32,205883;7
33;11,382353;32,205883;7
34;11,382353;32,205883;7
35;11,382353;32,205883;7
36;11,382353;32,205883;7
37;11,382353;32,205883;7
38;11,382353;32,205883;7
39;11,382353;32,205883;7
40;11,382353;32,205883;7
41;11,5;32,125;7
42;11,382353;32,205883;7
43;11,382353;32,205883;7
44;11,382353;32,205883;7
45;11,382353;32,205883;7
46;11,382353;32,205883;7
47;11,382353;32,205883;7
48;11,382353;32,205883;7
49;11,382353;32,205883;7
50;11,382353;32,205883;7
51;11,382353;32,205883;7
52;11,382353;32,205883;7
53;11,382353;32,205883;7
54;11,382353;32,205883;7
55;11,382353;32,205883;7
56;11,382353;32,205883;7
57;11,382353;32,205883;7
58;11,382353;32,205883;7
59;11,382353;32,205883;7
60;11,382353;32,205883;7
61;11,382353;32,205883;7
62;11,382353;32,205883;7
63;11,382353;32,205883;7
64;11,382353;32,205883;7
65;11,382353;32,205883;7
66;11,382353;32,205883;7
67;11,382353;32,205883;7
68;11,382353;32,205883;7
69;11,382353;32,205883;7
70;11,382353;32,205883;7
71;11,382353;32,205883;7
72;11,382353;32,205883;7
73;11,382353;32,205883;7
74;11,382353;32,205883;7
75;11,382353;32,205883;7
76;11,382353;32,205883;7
77;11,382353;32,205883;7
78;11,382353;32,205883;7
79;11,382353;32,205883;7
80;11,382353;32,205883;7
81;11,382353;32,205883;7
82;11,382353;32,205883;7
83;11,382353;32,205883;7
84;11,382353;32,205883;7
85;11,382353;32,205883;7
86;11,382353;32,205883;7
87;11,382353;32,205883;7
88;11,382353;32,205883;7
89;11,382353;32,205883;7
90;11,382353;32,205883;7
91;11,382353;32,205883;7
92;11,382353;32,205883;7
93;11,382353;32,205883;7
94;11,382353;32,205883;7
95;11,382353;32,205883;7
96;11,382353;32,205883;7
97;11,382353;32,205883;7
98;11,382353;32,205883;7
99;11,382353;32,205883;7
0;62,785713;34,0;9
1;61,03846;33,653847;9
2;60,807693;33,5;9
3;60,863636;33,409092;9
4;62,0;33,0;9
5;61,142857;31,785715;9
6;60,807693;31,5;9
7;59,142857;31,785715;9
8;60,0;31,0;9
9;60,5;30,0;9
10;61,03846;29,653847;9
11;59,409092;29,318182;9
12;58,714287;28,857143;9
13;59,142857;28,785715;9
14;60,214287;28,0;9
15;60,214287;27,857143;9
16;58,142857;27,285715;9
17;58,045456;26,863636;9
18;58,0;27,0;9
19;59,214287;26,0;9
20;58,5625;25,1875;9
21;57,583332;25,25;9
22;57,03846;25,653847;9
23;57,333332;25,0;9
24;57,7;24,0;9
25;57,366665;23,433332;9
26;56,25;23,166666;9
27;55,142857;23,785715;9
28;56,0;23,0;9
29;56,214287;21,857143;9
30;56,136364;21,40909;9
31;54,115383;22,115385;9
32;53,642857;21,0;9
33;54,0;21,0;9
34;55,214287;20,0;9
35;54,285713;19,428572;9
36;52,642857;19,428572;9
37;53,03846;19,653847;9
38;53,26923;19,115385;9
39;53,26923;18,115385;9
40;51,92857;18,071428;9
41;51,214287;18,0;9
42;51,0;18,214285;9
43;51,42857;17,714285;9
44;51,192307;16,576923;9
45;50,214287;16,357143;9
46;49,366665;17,566668;9
47;49,166668;17,366667;9
48;49,214287;16,0;9
49;49,1;15,633333;9
50;48,214287;15,5;9
51;47,0;16,5;9
52;47,1;15,9;9
53;47,1;14,9;9
54;47,214287;14,0;9
55;45,566666;15,1;9
56;44,807693;15,5;9
57;45,142857;14,785714;9
58;45,1;14,1;9
59;45,3;12,833333;9
60;43,25;13,875;9
61;43,0;14,0;9
62;42,9;14,1;9
63;43,033333;13,166667;9
64;42,1;13,166667;9
65;40,9;14,1;9
66;40,433334;14,9;9
67;40,25;14,125;9
68;40,642857;13,428572;9
69;38,9;13,9;9
70;38,73077;14,269231;9
71;38,833332;15,766666;9
72;37,884617;14,269231;9
73;37,382355;14,029411;9
74;36,807693;13,5;9
75;36,0;15,666667;9
76;35,714287;15,714286;9
77;35,807693;14,961538;9
78;34,9;14,1;9
79;34,375;14,5;9
80;33,5;16,5;9
81;33,214287;16,0;9
82;33,142857;15,785714;9
83;33,0;14,214286;9
84;31,5;15,875;9
85;31,142857;16,214285;9
86;31,807692;16,961538;9
87;30,9;16,1;9
88;30,633333;15,966666;9
89;29,583334;17,25;9
90;29,214285;18,0;9
91;29,863636;18,59091;9
92;29,142857;17,785715;9
93;28,285715;17,857143;9
94;27,916666;18,75;9
95;28,9;19,9;9
96;27,6875;20,1875;9
97;27,366667;19,566668;9
98;26,357143;19,0;9
99;25,59091;20,136364;9
0;46,5;54,666668;18
1;47,1;53,9;18
2;47,26923;53,884617;18
3;47,136364;54,590908;18
4;47,136364;55,409092;18
5;48,375;55,375;18
6;49,5;53,954544;18
7;49,5;53,954544;18
8;49,136364;54,590908;18
9;49,214287;56,0;18
10;50,25;55,833332;18
11;51,7;54,0;18
12;52,136364;53,772728;18
13;51,416668;54,083332;18
14;51,31818;55,136364;18
15;53,0;55,0;18
16;53,26923;53,73077;18
17;53,03846;51,653847;18
18;53,136364;51,409092;18
19;53,166668;52,25;18
20;53,863636;53,772728;18
21;54,863636;53,409092;18
22;55,142857;51,785713;18
23;54,9;51,0;18
24;54,045456;50,5;18
25;54,863636;51,409092;18
26;55,31818;51,68182;18
27;56,375;51,375;18
28;56,136364;49,772728;18
29;56,136364;49,772728;18
30;56,0;50,7;18
31;57,333332;51,0;18
32;57,590908;50,136364;18
33;57,166668;48,25;18
34;57,214287;48,0;18
35;56,884617;48,115383;18
36;57,5;49,2;18
37;58,944443;49,166668;18
38;59,115383;48,115383;18
39;57,576923;45,884617;18
40;57,03846;45,653847;18
41;58,0;46,0;18
42;59,227272;46,863636;18
43;60,136364;46,227272;18
44;59,03846;44,346153;18
45;57,26923;44,115383;18
46;56,785713;44,0;18
47;57,214287;44,0;18
48;58,833332;43,75;18
49;59,333332;43,0;18
50;57,807693;41,807693;18
51;56,3;41,5;18
52;55,416668;42,166668;18
53;55,26923;42,115383;18
54;56,7;41,5;18
55;57,03846;40,346153;18
56;56,166668;39,583332;18
57;54,916668;39,75;18
58;55,5;39,772728;18
59;56,7;39,4;18
60;57,0;38,5;18
61;55,1;37,9;18
62;53,714287;37,857143;18
63;53,26923;38,115383;18
64;54,115383;38,115383;18
65;54,916668;37,75;18
66;54,5;36,5;18
67;52,863636;37,136364;18
68;50,9;38,1;18
69;50,884617;37,884617;18
70;51,26923;37,884617;18
71;52,0;36,7;18
72;51,115383;36,115383;18
73;50,0;37,0;18
74;49,0;39,5;18
75;49,0;39,5;18
76;49,0;38,5;18
77;48,916668;37,25;18
78;48,642857;36,57143;18
79;47,03846;38,346153;18
80;47,1;39,9;18
81;47,807693;40,96154;18
82;47,0;40,5;18
83;47,0;39,785713;18
84;46,045456;39,136364;18
85;45,26923;41,115383;18
86;45,333332;42,0;18
87;46,68182;42,31818;18
88;46,115383;41,884617;18
89;45,136364;41,409092;18
90;44,045456;41,5;18
91;44,3;43,0;18
92;44,884617;44,115383;18
93;44,807693;43,5;18
94;44,0;43,0;18
95;43,227272;42,863636;18
96;43,166668;44,583332;18
97;43,31818;45,136364;18
98;43,75;44,833332;18
99;43,0;43,785713;18
0;59,954544;66,86364;24
1;59,0;67,5;24
2;59,0;67,5;24
3;58,833332;66,416664;24
4;58,0;66,0;24
5;57,136364;67,40909;24
6;56,96154;66,34615;24
7;56,115383;65,88461;24
8;55,0;66,5;24
9;55,136364;66,59091;24
10;55,0;66,0;24
11;54,423077;65,80769;24
12;53,26923;66,11539;24
13;53,5;65,954544;24
14;53,136364;65,40909;24
15;52,666668;65,416664;24
16;52,0;66,0;24
17;51,227272;64,86364;24
18;50,863636;64,59091;24
19;50,0;65,3;24
20;49,6;65,4;24
21;49,26923;64,11539;24
22;48,7;64,5;24
23;48,4;65,2;24
24;48,0;65,3;24
25;47,5;63,954544;24
26;46,68182;64,954544;24
27;46,0;64,7;24
28;46,045456;64,5;24
29;45,26923;63,884617;24
30;44,944443;65,166664;24
31;44,25;64,75;24
32;44,136364;64,045456;24
33;43,166668;64,25;24
34;42,863636;65,40909;24
35;42,0;65,0;24
36;41,38889;64,611115;24
37;40,863636;65,40909;24
38;40,863636;65,59091;24
39;40,136364;65,40909;24
40;39,863636;64,954544;24
41;39,03846;65,65385;24
42;38,7;65,5;24
43;38,045456;65,13636;24
44;37,31818;65,681816;24
45;36,884617;65,88461;24
46;36,0;65,3;24
47;35,31818;65,681816;24
48;35,26923;66,11539;24
49;35,115383;66,11539;24
50;34,863636;65,40909;24
51;33,863636;66,045456;24
52;33,7;66,0;24
53;33,26923;65,88461;24
54;33,0;65,78571;24
55;32,227272;66,681816;24
56;31,576923;66,19231;24
57;30,884615;66,11539;24
58;30,5;66,5;24
59;30,0;67,3;24
60;29,5;66,5;24
61;28,944445;67,166664;24
62;29,0;67,5;24
63;29,0;67,78571;24
64;28,0;67,3;24
65;27,26923;68,11539;24
66;27,26923;68,11539;24
67;26,884615;67,88461;24
68;26,0;67,3;24
69;25,3;68,5;24
70;25,0;68,5;24
71;24,785715;68,0;24
72;23,7;68,5;24
73;24,0;69,666664;24
74;23,142857;69,78571;24
75;22,59091;69,318184;24
76;22,0;70,21429;24
77;21,833334;70,416664;24
78;21,214285;70,0;24
79;20,9;69,9;24
80;20,0;71,3;24
81;19,884615;70,26923;24
82;19,26923;70,11539;24
83;19,142857;71,21429;24
84;19,0;71,78571;24
85;18,0;71,3;24
86;17,115385;71,88461;24
87;17,136364;72,40909;24
88;17,0;72,5;24
89;16,115385;71,88461;24
90;15,833333;73,27778;24
91;15,388889;73,388885;24
92;15,2;73,3;24
93;14,227273;73,22727;24
94;14,590909;74,13636;24
95;13,916667;74,25;24
96;13,214286;74,0;24
97;12,785714;74,0;24
98;12,785714;75,64286;24
99;11,772727;75,318184;24
0;11,333333;70,0;25
1;11,038462;70,34615;25
2;12,136364;71,40909;25
3;13,0;71,5;25
4;13,0;71,5;25
5;12,214286;72,0;25
6;11,807693;72,96154;25
7;13,928572;73,85714;25
8;13,214286;74,0;25
9;12,115385;74,11539;25
10;12,166667;75,583336;25
11;13,0;75,78571;25
12;15,0;75,5;25
13;14,730769;76,26923;25
14;14,045455;77,13636;25
15;16,0;77,3;25
16;16,0;77,833336;25
17;15,142858;78,21429;25
18;15,5;79,65385;25
19;16,416666;79,833336;25
20;18,045454;79,13636;25
21;17,928572;79,92857;25
22;17,2;80,7;25
23;19,0;81,5;25
24;19,653847;81,11539;25
25;18,5;81,5;25
26;17,722221;82,388885;25
27;17,681818;83,59091;25
28;19,666666;83,416664;25
29;20,40909;83,86364;25
30;19,2;84,7;25
31;20,59091;85,318184;25
32;22,416666;84,166664;25
33;22,166666;85,388885;25
34;22,115385;85,88461;25
35;22,0;87,0;25
36;23,722221;86,388885;25
37;24,785715;86,0;25
38;23,666666;87,416664;25
39;24,115385;88,11539;25
40;25,807692;87,80769;25
41;25,333334;88,0;25
42;25,038462;88,34615;25
43;24,884615;89,88461;25
44;25,714285;89,71429;25
45;27,333334;89,0;25
46;26,916666;90,25;25
47;27,227272;90,86364;25
48;29,0;90,21429;25
49;29,214285;90,0;25
50;29,5;89,954544;25
51;29,0;91,5;25
52;30,115385;91,88461;25
53;31,5;91,2;25
54;31,0;91,78571;25
55;30,0;93,0;25
56;30,884615;93,88461;25
57;32,0;93,3;25
58;33,136364;92,59091;25
59;32,884617;94,11539;25
60;33,136364;94,59091;25
61;35,03846;93,65385;25
62;35,1;94,1;25
63;34,590908;94,77273;25
64;34,884617;95,88461;25
65;35,92857;95,85714;25
66;37,409092;94,681816;25
67;37,142857;96,21429;25
68;37,0;97,5;25
69;39,166668;97,0;25
70;39,03846;96,34615;25
71;38,884617;96,11539;25
72;39,0;97,5;25
73;39,0;98,21429;25
74;40,7;97,1;25
75;41,115383;97,88461;25
76;40,954544;98,86364;25
77;42,0;99,0;25
78;43,0;98,21429;25
79;43,136364;97,40909;25
80;43,409092;98,318184;25
81;43,5;99,5;25
82;45,03846;98,34615;25
83;45,333332;99,0;25
84;45,214287;100,0;25
85;46,96154;99,65385;25
86;47,136364;98,59091;25
87;46,714287;98,28571;25
88;47,03846;99,65385;25
89;47,26923;100,11539;25
90;48,75;98,166664;25
91;49,166668;98,25;25
92;49,26923;99,11539;25
93;50,115383;100,11539;25
94;51,0;100,21429;25
95;51,7;98,0;25
96;52,409092;98,86364;25
97;53,0;100,21429;25
98;54,5;98,5;25
99;54,31818;97,681816;25
0;34,0;95,0;32
1;35,0;95,5;32
2;35,5;94,954544;32
3;36,115383;94,11539;32
4;36,25;95,833336;32
5;37,25;95,25;32
6;38,045456;95,13636;32
7;38,166668;95,388885;32
8;38,884617;96,11539;32
9;39,75;96,083336;32
10;40,653847;96,03846;32
11;40,136364;97,40909;32
12;42,045456;97,13636;32
13;42,3;96,5;32
14;42,884617;96,26923;32
15;43,03846;97,65385;32
16;44,166668;96,416664;32
17;45,0;96,21429;32
18;45,26923;97,11539;32
19;45,416668;98,166664;32
20;46,785713;97,85714;32
21;47,285713;97,28571;32
22;47,3;98,5;32
23;49,03846;98,34615;32
24;49,166668;97,583336;32
25;49,7;97,0;32
26;50,5;98,0;32
27;51,333332;97,0;32
28;52,0;97,0;32
29;52,31818;97,681816;32
30;53,136364;98,59091;32
31;53,61111;97,611115;32
32;54,590908;97,86364;32
33;55,136364;98,59091;32
34;56,0;98,0;32
35;56,045456;97,13636;32
36;56,7;97,5;32
37;57,31818;97,681816;32
38;58,25;96,166664;32
39;58,8;96,8;32
40;59,31818;97,13636;32
41;60,3;97,0;32
42;60,5;95,5;32
43;61,136364;96,59091;32
44;62,0;97,0;32
45;63,166668;95,25;32
46;62,68182;94,318184;32
47;63,136364;94,59091;32
48;64,045456;95,13636;32
49;64,7;93,5;32
50;65,13636;93,40909;32
51;65,388885;93,388885;32
52;66,5;94,0;32
53;67,03846;92,34615;32
54;67,5;92,954544;32
55;68,2;93,2;32
56;69,11539;92,11539;32
57;68,375;90,625;32
58;69,333336;91,0;32
59;70,3;91,0;32
60;70,2;89,1;32
61;71,0;89,5;32
62;71,416664;89,833336;32
63;72,5;89,5;32
64;72,88461;87,88461;32
65;73,625;88,625;32
66;74,5;88,0;32
67;74,375;87,375;32
68;74,13636;86,954544;32
69;75,2;87,3;32
70;75,416664;85,833336;32
71;76,0;85,3;32
72;77,0;85,5;32
73;77,166664;84,25;32
74;76,86364;83,59091;32
75;77,13636;83,40909;32
76;78,40909;83,86364;32
77;78,65385;82,03846;32
78;79,11539;82,11539;32
79;79,7;82,0;32
80;80,13636;81,40909;32
81;79,416664;80,083336;32
82;80,681816;80,318184;32
83;81,03846;79,65385;32
84;81,0;78,5;32
85;81,3;78,5;32
86;82,5;79,0;32
87;82,88461;77,88461;32
88;83,13636;77,40909;32
89;84,0;77,3;32
90;84,5;76,0;32
91;84,166664;75,388885;32
92;84,0;75,3;32
93;85,13636;75,40909;32
94;84,75;73,916664;32
95;85,03846;73,65385;32
96;86,0;73,3;32
97;86,86364;72,59091;32
98;85,86364;71,77273;32
99;87,03846;71,65385;32
0;75,7;105,0;37
1;74,954544;105,13636;37
2;74,88461;104,11539;37
3;74,0;103,0;37
4;73,083336;102,75;37
5;72,5;105,7;37
6;72,0;105,3;37
7;71,388885;104,611115;37
8;70,78571;104,14286;37
9;70,0;104,0;37
10;69,26923;107,11539;37
11;68,318184;106,318184;37
12;68,0;105,3;37
13;67,0;104,5;37
14;66,0;105,35714;37
15;66,25;107,833336;37
16;65,416664;107,833336;37
17;65,0;106,7;37
18;64,25;106,083336;37
19;63,333332;107,0;37
20;63,03846;109,65385;37
21;62,0;109,0;37
22;61,833332;108,611115;37
23;61,0;107,5;37
24;60,115383;108,57692;37
25;60,375;111,375;37
26;60,0;111,0;37
27;59,0;110,5;37
28;58,045456;109,5;37
29;57,7;111,0;37
30;57,72222;113,166664;37
31;57,333332;113,0;37
32;57,0;113,0;37
33;55,26923;112,11539;37
34;55,166668;113,583336;37
35;56,0;115,3;37
36;56,136364;115,77273;37
37;55,863636;115,954544;37
38;54,3;115,5;37
39;53,72222;116,388885;37
40;54,2;118,4;37
41;54,7;118,5;37
42;54,863636;118,40909;37
43;53,0;118,5;37
44;53,03846;119,65385;37
45;54,045456;121,13636;37
46;55,2;121,3;37
47;56,115383;121,88461;37
48;54,884617;122,11539;37
49;54,0;122,7;37
50;53,03846;123,65385;37
51;54,416668;124,75;37
52;56,8;125,3;37
53;55,4;125,8;37
54;54,9;125,9;37
55;53,38889;126,611115;37
56;53,9;127,6;37
57;56,375;129,375;37
58;55,5;129,5;37
59;55,0;129,5;37
60;53,26923;130,11539;37
61;53,2;131,3;37
62;56,115383;132,11539;37
63;56,0;133,0;37
64;55,31818;133,13637;37
65;54,285713;133,85715;37
66;54,0;134,7;37
67;56,916668;135,75;37
68;57,0;136,21428;37
69;57,115383;136,11539;37
70;56,0;137,0;37
71;55,142857;137,78572;37
72;57,583332;138,33333;37
73;58,25;138,16667;37
74;58,9;138,1;37
75;58,31818;139,5;37
76;57,26923;140,11539;37
77;58,653847;140,88461;37
78;60,0;141,3;37
79;61,03846;140,34616;37
80;60,642857;141,0;37
81;59,714287;142,21428;37
82;61,642857;143,0;37
83;62,833332;142,75;37
84;63,884617;141,73077;37
85;64,34615;142,03847;37
86;64,045456;143,13637;37
87;64,045456;144,5;37
88;64,96154;144,88461;37
89;66,166664;143,38889;37
90;67,0;143,5;37
91;66,7;144,5;37
92;66,88461;145,88461;37
93;67,03846;146,34616;37
94;69,2;144,7;37
95;70,3;145,0;37
96;69,416664;146,08333;37
97;71,0;138,5;37
98;70,86364;138,40909;37
99;69,0;138,5;37
